Final
…
# What are the mean, standard deviation, minimum, and 
# maximum Nitrogen Dioxide levels by Time Period?

flushing_data <- airquality |>
  group_by(Time.Period) |>
  summarize(
    mean_value = mean(Data.Value, na.rm = TRUE),
    sd_value = sd(Data.Value, na.rm = TRUE),
    min_value = min(Data.Value, na.rm = TRUE),
    max_value = max(Data.Value, na.rm = TRUE)
  )
print(flushing_data)

# A tibble: 57 × 5
   Time.Period mean_value sd_value min_value max_value
   <chr>            <dbl>    <dbl>     <dbl>     <dbl>
 1 2005             35.0    38.9       0.509    186.  
 2 2005-2007        46.2    53.6       1.3      425.  
 3 2009-2011        41.4    48.0       1        299.  
 4 2010             48.1    41.7       0.341    179.  
 5 2011              1.90    0.493     0.795      3.41
 6 2012-2014        40.1    49.9       0.9      278.  
 7 2013             24.1    49.0       0        285.  
 8 2014              1.23    0.340     0.574      1.74
 9 2015             20.0    42.4       0        256.  
10 2015-2017        34.7    41.8       0.6      262.  
# ℹ 47 more rows
…
